<svg width="105" height="28" viewBox="0 0 105 28" fill="none" xmlns="http://www.w3.org/2000/svg">
<path d="M16.684 1.728V6.66H6.388V11.988H14.092V16.776H6.388V27H0.232V1.728H16.684ZM27.8755 0.36V27H21.7195V0.36H27.8755ZM32.9127 16.92C32.9127 14.856 33.2967 13.044 34.0647 11.484C34.8567 9.924 35.9247 8.724 37.2687 7.884C38.6127 7.044 40.1127 6.624 41.7687 6.624C43.1847 6.624 44.4207 6.912 45.4767 7.488C46.5567 8.064 47.3847 8.82 47.9607 9.756V6.912H54.1167V27H47.9607V24.156C47.3607 25.092 46.5207 25.848 45.4407 26.424C44.3847 27 43.1487 27.288 41.7327 27.288C40.1007 27.288 38.6127 26.868 37.2687 26.028C35.9247 25.164 34.8567 23.952 34.0647 22.392C33.2967 20.808 32.9127 18.984 32.9127 16.92ZM47.9607 16.956C47.9607 15.42 47.5287 14.208 46.6647 13.32C45.8247 12.432 44.7927 11.988 43.5687 11.988C42.3447 11.988 41.3007 12.432 40.4367 13.32C39.5967 14.184 39.1767 15.384 39.1767 16.92C39.1767 18.456 39.5967 19.68 40.4367 20.592C41.3007 21.48 42.3447 21.924 43.5687 21.924C44.7927 21.924 45.8247 21.48 46.6647 20.592C47.5287 19.704 47.9607 18.492 47.9607 16.956ZM69.4063 21.24L73.7623 6.912H80.3143L73.1863 27H65.5903L58.4623 6.912H65.0503L69.4063 21.24ZM83.4814 16.92C83.4814 14.856 83.8654 13.044 84.6334 11.484C85.4254 9.924 86.4934 8.724 87.8374 7.884C89.1814 7.044 90.6814 6.624 92.3374 6.624C93.7534 6.624 94.9894 6.912 96.0454 7.488C97.1254 8.064 97.9534 8.82 98.5294 9.756V6.912H104.685V27H98.5294V24.156C97.9294 25.092 97.0894 25.848 96.0094 26.424C94.9534 27 93.7174 27.288 92.3014 27.288C90.6694 27.288 89.1814 26.868 87.8374 26.028C86.4934 25.164 85.4254 23.952 84.6334 22.392C83.8654 20.808 83.4814 18.984 83.4814 16.92ZM98.5294 16.956C98.5294 15.42 98.0974 14.208 97.2334 13.32C96.3934 12.432 95.3614 11.988 94.1374 11.988C92.9134 11.988 91.8694 12.432 91.0054 13.32C90.1654 14.184 89.7454 15.384 89.7454 16.92C89.7454 18.456 90.1654 19.68 91.0054 20.592C91.8694 21.48 92.9134 21.924 94.1374 21.924C95.3614 21.924 96.3934 21.48 97.2334 20.592C98.0974 19.704 98.5294 18.492 98.5294 16.956Z" fill="#FFBC25"/>
</svg>
